[
    {
        "scope": [
            "dining"
        ],
        "resource": "/api/users/me",
        "access": [
            "read"
        ]
    },
    {
        "scope": [
            "dining"
        ],
        "resource": "/api/content/private",
        "access": [
            "read"
        ]
    },
    {
        "scope": [
            "dining"
        ],
        "resource": "/api/ActionStatusTypes",
        "access": [
            "read"
        ]
    },
    {
        "scope": [
            "dining"
        ],
        "resource": "/api/StudentStatuses",
        "access": [
            "read"
        ]
    },
    {
        "scope": [
            "dining"
        ],
        "resource": "/api/StudentCategories",
        "access": [
            "read"
        ]
    },
    {
        "scope": [
            "dining"
        ],
        "resource": "/api/FamilyStatuses",
        "access": [
            "read"
        ]
    },
    {
        "scope": [
            "dining"
        ],
        "resource": "/api/LocalDepartments",
        "access": [
            "read"
        ]
    },
    {
        "scope": [
            "registrar",
            "dining"
        ],
        "resource": "/api/DiningInscriptionModeTags",
        "access": [
            "read",
            "write"
        ]
    },
    {
        "scope": [
            "dining"
        ],
        "resource": "/api/DiningRequestActions",
        "access": [
            "read",
            "write"
        ]
    },
    {
        "scope": [
            "dining"
        ],
        "resource": "/api/SpecialDiningRequestActions",
        "access": [
            "read",
            "write"
        ]
    },
    {
        "scope": [
            "dining"
        ],
        "resource": "/api/DiningRequestActionMessages",
        "access": [
            "read",
            "write"
        ]
    },
    {
        "scope": [
            "dining"
        ],
        "resource": "/api/DiningRequestActionReviews",
        "access": [
            "read",
            "write"
        ]
    },
    {
        "scope": [
            "dining"
        ],
        "resource": "/api/DiningRequestAttachmentConfigurations",
        "access": [
            "read",
            "write"
        ]
    },
    {
        "scope": [
            "registrar",
            "dining"
        ],
        "resource": "/api/DiningRequestEffectiveStatusTypes",
        "access": [
            "read",
            "write"
        ]
    },
    {
        "scope": [
            "dining"
        ],
        "resource": "/api/DiningRequestEvents",
        "access": [
            "read",
            "write"
        ]
    },
    {
        "scope": [
            "dining"
        ],
        "resource": "/api/AcademicYears",
        "access": [
            "read"
        ]
    },
    {
        "scope": [
            "dining"
        ],
        "resource": "/api/AcademicPeriods",
        "access": [
            "read"
        ]
    },
    {
        "scope": [
            "dining"
        ],
        "resource": "/api/StudentDiningCards",
        "access": [
            "read",
            "write"
        ]
    },
    {
        "scope": [
            "dining"
        ],
        "resource": "/api/DiningPlaces",
        "access": [
            "read",
            "write"
        ]
    },
    {
        "scope": [
            "dining"
        ],
        "resource": "/api/DiningConfigurations",
        "access": [
            "read",
            "write"
        ]
    },
    {
        "scope": [
            "dining"
        ],
        "resource": "/api/ReportTemplates",
        "access": [
            "read",
            "write"
        ]
    },
    {
        "scope": [
            "dining"
        ],
        "resource": "/api/DiningRequestCategories",
        "access": [
            "read",
            "write"
        ]
    },
    {
        "scope": [
            "dining"
        ],
        "resource": "/api/DiningRequestPreferences",
        "access": [
            "read"
        ]
    },
    {
        "scope": [
            "students"
        ],
        "resource": "/api/DiningRequestEvents",
        "access": [
            "read"
        ]
    },
    {
        "scope": [
            "students"
        ],
        "resource": "/api/DiningRequestActions",
        "access": [
            "read",
            "write"
        ]
    },
    {
        "scope": [
            "students"
        ],
        "resource": "/api/SpecialDiningRequestActions",
        "access": [
            "read",
            "write"
        ]
    },
    {
        "scope": [
            "students"
        ],
        "resource": "/api/DiningRequestCategories",
        "access": [
            "read"
        ]
    },
    {
        "scope": [
            "students"
        ],
        "resource": "/api/DiningInscriptionModeTags",
        "access": [
            "read"
        ]
    },    
    {
        "scope": [
            "students"
        ],
        "resource": "/api/FamilyStatuses",
        "access": [
            "read"
        ]
    },
    {
        "scope": [
            "students"
        ],
        "resource": "/api/GuardianTypes",
        "access": [
            "read"
        ]
    },
    {
        "scope": [
            "students"
        ],
        "resource": "/api/StudentDiningCards",
        "access": [
            "read"
        ]
    },
    {
        "scope": [
            "students"
        ],
        "resource": "/api/students/me/diningPreferenceEffectiveStatus",
        "access": [
            "read"
        ]
    },
    {
        "scope": [
            "students"
        ],
        "resource": "/api/DiningRequestPreferences",
        "access": [
            "read",
            "write"
        ]
    }
]
